"Network","Client","Client Account","Unit Type","Job Site","Completion Status","Service Rate","Referral Fee"
"Noise","DSGi",5890007,"BASIC ","Field Call","Complete Job","48.33",6
"Noise","DSGi",5890007,"BASIC ","Workshop","Complete Job","N/A",6
"Noise","DSGi",5890007,"HOME CINEMA INSTALL","Field Call","Complete Job","54.17",6
"Noise","DSGi",5890007,"HOME CINEMA INSTALL","Workshop","Complete Job","N/A",6
"Noise","DSGi",5890007,"WALL MOUNT <32inch","Field Call","Complete Job","99.17",6
"Noise","DSGi",5890007,"WALL MOUNT <32inch","Workshop","Complete Job","N/A",6
"Noise","DSGi",5890007,"WALL MOUNT 32inch-55inch","Field Call","Complete Job","124.17",6
"Noise","DSGi",5890007,"WALL MOUNT 32inch-55inch","Workshop","Complete Job","N/A",6
"Noise","DSGi",5890007,"WALL MOUNT 60inch+","Field Call","Complete Job","169.36",6
"Noise","DSGi",5890007,"WALL MOUNT 60inch+","Workshop","Complete Job","N/A",6
"Noise","","","BASIC ","Field Call","Complete Job","48.33",6
"Noise","","","BASIC ","Workshop","Complete Job","N/A",6
"Noise","","","HOME CINEMA INSTALL","Field Call","Complete Job","54.17",6
"Noise","","","HOME CINEMA INSTALL","Workshop","Complete Job","N/A",6
"Noise","","","WALL MOUNT <32inch","Field Call","Complete Job","99.17",6
"Noise","","","WALL MOUNT <32inch","Workshop","Complete Job","N/A",6
"Noise","","","WALL MOUNT 32inch-55inch","Field Call","Complete Job","124.17",20
"Noise","","","WALL MOUNT 32inch-55inch","Workshop","Complete Job","N/A",20
"Noise","","","WALL MOUNT 60inch+","Field Call","Complete Job","169.36",25
"Noise","","","WALL MOUNT 60inch+","Workshop","Complete Job","N/A",25
